<?xml version="1.0" encoding="UTF-8"?>
<session version="1.0">
<refactoring comment="Delete resource &apos;discountapi&apos;" deleteContents="false" description="Delete resource &apos;discountapi&apos;" element1="/discountapi" flags="7" id="org.eclipse.ltk.core.refactoring.delete.resources" resources="1" stamp="1661147887106"/>
</session>